[gd_scene load_steps=3 format=2]

[ext_resource path="res://game/assets/piece_1.png" type="Texture" id=1]
[ext_resource path="res://game/scenes/game_piece_hint.gd" type="Script" id=2]

[node name="GamePieceHint" type="Node2D"]
script = ExtResource( 2 )

[node name="Frame" type="Sprite" parent="."]

[node name="Icon" type="Sprite" parent="Frame"]
texture = ExtResource( 1 )

[node name="ScaleTimer" type="Timer" parent="."]

[node name="ColorTimer" type="Timer" parent="."]

[node name="ScaleTween" type="Tween" parent="."]

[node name="ColorTween" type="Tween" parent="."]

[connection signal="tween_completed" from="ScaleTween" to="." method="_on_ScaleTween_tween_completed"]
[connection signal="tween_completed" from="ColorTween" to="." method="_on_ColorTween_tween_completed"]
