[gd_scene load_steps=3 format=2]

[ext_resource path="res://game/scenes/music_manager.tscn" type="PackedScene" id=1]
[ext_resource path="res://game_work/music_manager_work.gd" type="Script" id=2]

[node name="MusicManagerWork" type="Node2D"]
script = ExtResource( 2 )

[node name="MusicManager" parent="." instance=ExtResource( 1 )]
